<?xml version="1.0" encoding="UTF-8"?>
<svg xmlns="http://www.w3.org/2000/svg" xmlns:xlink="http://www.w3.org/1999/xlink" width="375pt" height="374.999991pt" viewBox="0 0 375 374.999991" version="1.2">
<defs>
<clipPath id="clip1">
  <path d="M 127.453125 95 L 146 95 L 146 115 L 127.453125 115 Z M 127.453125 95 "/>
</clipPath>
</defs>
<g id="surface1">
<path style=" stroke:none;fill-rule:nonzero;fill:rgb(52.159119%,26.669312%,18.429565%);fill-opacity:1;" d="M 178.339844 52.828125 C 179.566406 45.746094 183.109375 44.113281 189.15625 41.953125 C 194.300781 40.113281 203.070312 39.355469 206.441406 44.695312 C 211.695312 53.007812 202.359375 61.726562 195.171875 64.316406 C 191.429688 65.664062 184.957031 70.304688 181.566406 67.347656 C 178.816406 64.949219 177.554688 57.382812 178.339844 52.828125 "/>
<path style=" stroke:none;fill-rule:nonzero;fill:rgb(96.469116%,58.428955%,45.878601%);fill-opacity:1;" d="M 176.898438 108.003906 C 176.898438 108.003906 167.003906 121.921875 173.019531 141.371094 C 175.847656 148.308594 178.808594 145.109375 179.496094 143.839844 C 182.097656 139.058594 184.910156 133.453125 187.148438 127.757812 C 192.027344 115.355469 191.339844 111.132812 191.339844 111.132812 C 191.339844 111.132812 186.109375 101.726562 176.898438 108.003906 "/>
<path style=" stroke:none;fill-rule:nonzero;fill:rgb(96.469116%,58.428955%,45.878601%);fill-opacity:1;" d="M 195.75 103.066406 C 194.453125 112.570312 190.175781 117.097656 184.914062 118.105469 C 179.652344 119.121094 175.15625 112.03125 175.546875 106.660156 C 176.089844 99.121094 178.085938 93.257812 184.261719 91.449219 C 191.949219 89.203125 196.476562 97.726562 195.75 103.066406 "/>
<path style=" stroke:none;fill-rule:nonzero;fill:rgb(46.669006%,43.528748%,74.899292%);fill-opacity:1;" d="M 184.320312 88.21875 C 184.320312 88.21875 176.207031 89.773438 172.324219 108.957031 C 172.324219 108.957031 170.355469 118.707031 170.769531 122.335938 C 170.769531 122.335938 178.355469 130.222656 189.691406 130.328125 C 189.691406 130.328125 197.519531 102.632812 194.566406 93.761719 C 194.566406 93.761719 190.617188 87.296875 184.320312 88.21875 "/>
<path style=" stroke:none;fill-rule:nonzero;fill:rgb(52.159119%,26.669312%,18.429565%);fill-opacity:1;" d="M 183.019531 63.757812 C 186.667969 69.324219 189.402344 58.796875 189.40625 56.199219 C 189.414062 53.707031 189.050781 51.15625 186.796875 49.808594 C 185.695312 49.152344 183.140625 48.828125 182.09375 49.734375 C 181.226562 50.484375 181.03125 51.992188 180.878906 53.054688 C 180.394531 56.433594 181.128906 60.878906 183.019531 63.757812 "/>
<path style=" stroke:none;fill-rule:nonzero;fill:rgb(90.19928%,51.368713%,40.779114%);fill-opacity:1;" d="M 175.625 254.128906 C 175.625 254.128906 184.921875 313.699219 185.488281 315.996094 C 185.488281 315.996094 191.320312 316.804688 191.242188 315.484375 C 191.050781 312.300781 196.917969 284.621094 196.601562 279.625 C 195.796875 266.964844 194.726562 261.527344 190.792969 253.269531 C 190.792969 253.269531 174.425781 241.367188 175.625 254.128906 "/>
<path style=" stroke:none;fill-rule:nonzero;fill:rgb(82.348633%,83.139038%,81.959534%);fill-opacity:1;" d="M 185.171875 314.058594 C 185.171875 314.058594 183.417969 319.527344 181.777344 321.019531 C 180.128906 322.511719 173.753906 324.8125 173.753906 324.8125 L 170.210938 325.421875 C 170.210938 325.421875 167.78125 327.261719 174.628906 328.945312 C 181.472656 330.625 193.246094 324.667969 193.246094 324.667969 L 191.316406 314.175781 L 185.171875 314.058594 "/>
<path style=" stroke:none;fill-rule:nonzero;fill:rgb(9.01947%,21.179199%,39.219666%);fill-opacity:1;" d="M 186.613281 319.304688 C 187.722656 320.191406 188.980469 318.527344 188.980469 318.527344 C 189.898438 316.667969 191.90625 316.15625 191.90625 316.15625 L 195.058594 326.324219 L 190.007812 328.402344 C 174.207031 334.773438 166.816406 328.289062 166.816406 328.289062 C 165.996094 325.878906 167.605469 325.132812 167.605469 325.132812 C 175.660156 324.847656 181.597656 319.1875 181.597656 319.1875 C 181.597656 319.1875 182.234375 318.542969 182.648438 316.578125 C 182.648438 316.578125 182.5625 316.035156 183.578125 316.097656 L 186.738281 316.847656 C 186.738281 316.847656 187.59375 317.046875 187.085938 317.964844 L 186.613281 319.304688 "/>
<path style=" stroke:none;fill-rule:nonzero;fill:rgb(2.749634%,7.058716%,13.328552%);fill-opacity:1;" d="M 189.433594 320.613281 C 188.214844 321.097656 186.359375 321.820312 185.035156 321.238281 C 185.847656 320.632812 186.355469 319.8125 186.753906 318.914062 L 186.613281 319.304688 C 187.722656 320.191406 188.980469 318.527344 188.980469 318.527344 C 189.898438 316.667969 191.90625 316.15625 191.90625 316.15625 L 192.726562 318.800781 C 191.761719 319.597656 190.53125 320.175781 189.433594 320.613281 "/>
<path style=" stroke:none;fill-rule:nonzero;fill:rgb(100%,100%,100%);fill-opacity:1;" d="M 183.699219 326.160156 C 183.675781 324.632812 182.714844 323.429688 181.675781 322.410156 C 181.21875 321.957031 180.75 321.535156 180.195312 321.21875 C 179.984375 321.101562 179.742188 320.980469 179.511719 320.84375 C 180.238281 320.328125 180.804688 319.878906 181.152344 319.578125 C 181.367188 319.859375 181.578125 320.152344 181.800781 320.425781 C 182.75 321.597656 184.070312 323.480469 185.632812 323.878906 C 188.519531 324.609375 191.457031 321.765625 192.9375 319.480469 L 193.285156 320.613281 L 193.238281 320.796875 C 191.984375 321.949219 190.683594 323.046875 189.308594 324.046875 C 188.226562 324.832031 187.039062 325.503906 186.449219 326.761719 C 186.175781 327.339844 185.859375 328.421875 185.757812 329.039062 C 184.808594 329.367188 183.902344 329.546875 182.898438 329.714844 C 183.351562 328.734375 183.722656 327.28125 183.699219 326.160156 "/>
<path style=" stroke:none;fill-rule:nonzero;fill:rgb(100%,100%,100%);fill-opacity:1;" d="M 170.578125 324.78125 C 170.796875 325.429688 171.386719 326.382812 172.097656 326.773438 C 171.355469 327.042969 170.1875 326.757812 169.554688 326.625 C 168.570312 326.421875 168.09375 325.847656 167.648438 325.132812 C 168.660156 325.09375 169.636719 324.964844 170.578125 324.78125 "/>
<path style=" stroke:none;fill-rule:nonzero;fill:rgb(2.749634%,7.058716%,13.328552%);fill-opacity:1;" d="M 172.6875 329.984375 C 176.042969 330.816406 179.535156 330.273438 182.898438 329.714844 C 185.867188 329.21875 188.871094 328.179688 190.976562 325.929688 C 192.226562 324.59375 192.996094 323.007812 193.507812 321.320312 L 195.058594 326.324219 L 190.007812 328.402344 C 174.207031 334.773438 166.816406 328.289062 166.816406 328.289062 C 166.699219 327.945312 166.636719 327.640625 166.609375 327.363281 C 168.109375 328.988281 170.578125 329.460938 172.6875 329.984375 "/>
<path style=" stroke:none;fill-rule:nonzero;fill:rgb(2.749634%,7.058716%,13.328552%);fill-opacity:1;" d="M 186.613281 319.304688 L 186.757812 319.394531 C 186.015625 320.964844 184.542969 322.105469 183.132812 323.078125 C 181.578125 324.144531 179.773438 324.9375 178.226562 325.578125 C 176.703125 326.203125 175.328125 327.085938 173.585938 326.875 C 172.191406 326.707031 171.339844 325.886719 170.964844 324.699219 C 177.257812 323.320312 181.597656 319.1875 181.597656 319.1875 C 181.597656 319.1875 182.234375 318.542969 182.648438 316.578125 C 182.648438 316.578125 182.5625 316.035156 183.578125 316.097656 L 186.738281 316.847656 C 186.738281 316.847656 187.59375 317.046875 187.085938 317.964844 L 186.613281 319.304688 "/>
<path style=" stroke:none;fill-rule:nonzero;fill:rgb(9.799194%,10.5896%,12.939453%);fill-opacity:1;" d="M 195.058594 326.324219 L 190.007812 328.402344 C 174.207031 334.773438 166.816406 328.289062 166.816406 328.289062 C 166.816406 328.289062 166.820312 329.992188 167.9375 330.757812 C 167.9375 330.757812 177.507812 335.738281 190.765625 329.992188 C 190.765625 329.992188 193.425781 329.136719 195.507812 327.953125 C 195.507812 327.953125 195.667969 326.421875 195.058594 326.324219 "/>
<path style=" stroke:none;fill-rule:nonzero;fill:rgb(100%,100%,100%);fill-opacity:1;" d="M 179.730469 321.171875 L 179.800781 321.175781 C 179.964844 321.191406 180.402344 321.269531 180.921875 321.621094 C 181.4375 321.972656 182.046875 322.605469 182.546875 323.792969 C 182.648438 324.042969 182.9375 324.160156 183.183594 324.054688 C 183.433594 323.953125 183.550781 323.664062 183.445312 323.417969 C 182.808594 321.886719 181.933594 321.054688 181.183594 320.636719 C 180.4375 320.214844 179.835938 320.195312 179.730469 320.195312 C 179.460938 320.195312 179.246094 320.414062 179.246094 320.683594 C 179.246094 320.953125 179.460938 321.171875 179.730469 321.171875 "/>
<path style=" stroke:none;fill-rule:nonzero;fill:rgb(100%,100%,100%);fill-opacity:1;" d="M 177.894531 322.144531 L 177.898438 322.132812 L 177.894531 322.144531 L 177.898438 322.132812 L 177.894531 322.144531 C 177.941406 322.15625 178.324219 322.238281 178.78125 322.589844 C 179.242188 322.941406 179.785156 323.558594 180.160156 324.699219 C 180.246094 324.953125 180.519531 325.09375 180.777344 325.007812 C 181.035156 324.925781 181.171875 324.648438 181.089844 324.394531 C 180.632812 322.996094 179.894531 322.175781 179.257812 321.726562 C 178.621094 321.277344 178.09375 321.191406 178.039062 321.183594 C 177.773438 321.140625 177.523438 321.324219 177.484375 321.589844 C 177.445312 321.859375 177.628906 322.105469 177.894531 322.144531 "/>
<path style=" stroke:none;fill-rule:nonzero;fill:rgb(100%,100%,100%);fill-opacity:1;" d="M 176.355469 323.148438 L 176.417969 322.878906 L 176.351562 323.144531 L 176.355469 323.148438 L 176.417969 322.878906 L 176.351562 323.144531 C 176.351562 323.144531 176.429688 323.164062 176.566406 323.230469 C 176.980469 323.4375 177.894531 324.027344 178.484375 325.804688 C 178.566406 326.058594 178.84375 326.199219 179.097656 326.117188 C 179.355469 326.03125 179.496094 325.757812 179.410156 325.5 C 178.953125 324.113281 178.277344 323.28125 177.691406 322.804688 C 177.109375 322.328125 176.628906 322.210938 176.574219 322.195312 C 176.3125 322.136719 176.050781 322.300781 175.988281 322.5625 C 175.929688 322.828125 176.09375 323.089844 176.355469 323.148438 "/>
<path style=" stroke:none;fill-rule:nonzero;fill:rgb(100%,100%,100%);fill-opacity:1;" d="M 174.542969 324.125 C 174.589844 324.125 174.921875 324.152344 175.328125 324.433594 C 175.730469 324.714844 176.234375 325.253906 176.605469 326.375 C 176.6875 326.632812 176.964844 326.769531 177.222656 326.6875 C 177.476562 326.601562 177.617188 326.328125 177.53125 326.070312 C 177.082031 324.699219 176.386719 323.941406 175.765625 323.554688 C 175.144531 323.164062 174.628906 323.148438 174.542969 323.148438 C 174.273438 323.148438 174.054688 323.367188 174.054688 323.636719 C 174.054688 323.90625 174.273438 324.125 174.542969 324.125 "/>
<path style=" stroke:none;fill-rule:nonzero;fill:rgb(100%,100%,100%);fill-opacity:1;" d="M 172.257812 324.808594 L 172.261719 324.808594 C 172.304688 324.8125 172.636719 324.839844 173.039062 325.121094 C 173.445312 325.402344 173.945312 325.941406 174.316406 327.070312 C 174.402344 327.324219 174.675781 327.464844 174.933594 327.378906 C 175.1875 327.296875 175.328125 327.023438 175.246094 326.765625 C 174.796875 325.390625 174.101562 324.628906 173.480469 324.242188 C 172.859375 323.851562 172.34375 323.835938 172.257812 323.835938 C 171.988281 323.835938 171.769531 324.054688 171.769531 324.324219 C 171.769531 324.59375 171.988281 324.808594 172.257812 324.808594 "/>
<path style=" stroke:none;fill-rule:nonzero;fill:rgb(90.19928%,51.368713%,40.779114%);fill-opacity:1;" d="M 190.792969 253.269531 C 199.101562 230.644531 204.660156 191.390625 204.660156 191.390625 C 204.660156 191.390625 205.53125 180.367188 194.019531 177.605469 C 183.136719 174.996094 178.21875 189.375 178.351562 191.109375 C 178.351562 191.109375 172.359375 237.589844 176.074219 252.28125 C 176.074219 252.28125 184.714844 262.957031 190.792969 253.269531 "/>
<path style=" stroke:none;fill-rule:nonzero;fill:rgb(96.469116%,58.428955%,45.878601%);fill-opacity:1;" d="M 204.703125 257.683594 C 204.703125 257.683594 219.277344 265.988281 221.820312 252.347656 C 225.871094 230.636719 227.789062 205.175781 227.789062 205.175781 C 227.789062 205.175781 230.660156 195.113281 219.203125 192.136719 C 201.921875 187.640625 199.578125 203.433594 199.789062 202.511719 C 199.789062 202.511719 201.914062 251.28125 204.703125 257.683594 "/>
<path style=" stroke:none;fill-rule:nonzero;fill:rgb(96.469116%,58.428955%,45.878601%);fill-opacity:1;" d="M 204.652344 257.773438 C 204.652344 257.773438 221.230469 311.324219 222.152344 313.5 C 222.152344 313.5 228.5 313.769531 228.210938 312.480469 C 227.523438 309.367188 228.851562 281.246094 227.753906 276.359375 C 224.976562 263.984375 223.066406 258.78125 217.882812 251.246094 C 217.882812 251.246094 202.210938 247.785156 204.652344 257.773438 "/>
<path style=" stroke:none;fill-rule:nonzero;fill:rgb(82.749939%,82.348633%,82.348633%);fill-opacity:1;" d="M 222.152344 313.5 C 222.152344 313.5 221.464844 318.738281 220.128906 320.507812 C 218.785156 322.277344 212.949219 325.71875 212.949219 325.71875 L 209.578125 326.976562 C 209.578125 326.976562 207.535156 329.234375 214.574219 329.617188 C 221.613281 330.003906 232.070312 321.964844 232.070312 321.964844 L 228.230469 312.011719 L 222.152344 313.5 "/>
<path style=" stroke:none;fill-rule:nonzero;fill:rgb(9.01947%,21.179199%,39.219666%);fill-opacity:1;" d="M 224.542969 318.390625 C 225.796875 319.054688 226.726562 317.1875 226.726562 317.1875 C 227.277344 315.191406 229.160156 314.316406 229.160156 314.316406 L 234.140625 323.726562 L 229.566406 326.703125 C 215.222656 335.890625 206.757812 330.886719 206.757812 330.886719 C 205.503906 328.671875 206.945312 327.640625 206.945312 327.640625 C 214.8125 325.867188 219.59375 319.203125 219.59375 319.203125 C 219.59375 319.203125 220.101562 318.449219 220.144531 316.445312 C 220.144531 316.445312 219.953125 315.925781 220.964844 315.804688 L 224.210938 315.953125 C 224.210938 315.953125 225.085938 315.988281 224.757812 316.984375 L 224.542969 318.390625 "/>
<path style=" stroke:none;fill-rule:nonzero;fill:rgb(2.749634%,7.058716%,13.328552%);fill-opacity:1;" d="M 227.558594 319.15625 C 226.453125 319.855469 224.761719 320.910156 223.351562 320.582031 C 224.035156 319.839844 224.386719 318.9375 224.605469 317.980469 L 224.542969 318.390625 C 225.796875 319.054688 226.726562 317.1875 226.726562 317.1875 C 227.277344 315.191406 229.160156 314.316406 229.160156 314.316406 L 230.457031 316.761719 C 229.65625 317.722656 228.554688 318.519531 227.558594 319.15625 "/>
<path style=" stroke:none;fill-rule:nonzero;fill:rgb(100%,100%,100%);fill-opacity:1;" d="M 222.953125 325.664062 C 222.640625 324.171875 221.480469 323.167969 220.265625 322.355469 C 219.738281 322 219.191406 321.671875 218.589844 321.460938 C 218.359375 321.382812 218.101562 321.308594 217.847656 321.21875 C 218.46875 320.578125 218.941406 320.03125 219.230469 319.671875 C 219.488281 319.910156 219.75 320.15625 220.019531 320.382812 C 221.175781 321.363281 222.816406 322.96875 224.425781 323.066406 C 227.402344 323.25 229.761719 319.910156 230.792969 317.394531 L 231.34375 318.4375 L 231.328125 318.628906 C 230.308594 319.992188 229.234375 321.3125 228.066406 322.550781 C 227.152344 323.523438 226.109375 324.402344 225.765625 325.746094 C 225.605469 326.367188 225.496094 327.488281 225.511719 328.113281 C 224.640625 328.613281 223.78125 328.960938 222.824219 329.308594 C 223.085938 328.265625 223.183594 326.765625 222.953125 325.664062 "/>
<path style=" stroke:none;fill-rule:nonzero;fill:rgb(100%,100%,100%);fill-opacity:1;" d="M 209.800781 326.742188 C 210.136719 327.339844 210.890625 328.171875 211.660156 328.421875 C 210.984375 328.828125 209.789062 328.757812 209.140625 328.746094 C 208.132812 328.726562 207.558594 328.253906 206.984375 327.632812 C 207.976562 327.40625 208.910156 327.101562 209.800781 326.742188 "/>
<path style=" stroke:none;fill-rule:nonzero;fill:rgb(2.749634%,7.058716%,13.328552%);fill-opacity:1;" d="M 212.839844 331.464844 C 216.292969 331.664062 219.621094 330.480469 222.824219 329.308594 C 225.644531 328.273438 228.414062 326.691406 230.0625 324.089844 C 231.039062 322.546875 231.5 320.847656 231.6875 319.09375 L 234.140625 323.726562 L 229.566406 326.703125 C 215.222656 335.890625 206.757812 330.886719 206.757812 330.886719 C 206.578125 330.570312 206.460938 330.285156 206.378906 330.019531 C 208.15625 331.335938 210.667969 331.34375 212.839844 331.464844 "/>
<path style=" stroke:none;fill-rule:nonzero;fill:rgb(2.749634%,7.058716%,13.328552%);fill-opacity:1;" d="M 224.542969 318.390625 L 224.703125 318.457031 C 224.261719 320.132812 223.023438 321.527344 221.820312 322.746094 C 220.492188 324.078125 218.867188 325.195312 217.464844 326.109375 C 216.085938 327.003906 214.894531 328.132812 213.144531 328.242188 C 211.746094 328.335938 210.753906 327.6875 210.171875 326.59375 C 216.089844 324.070312 219.59375 319.203125 219.59375 319.203125 C 219.59375 319.203125 220.101562 318.449219 220.144531 316.445312 C 220.144531 316.445312 219.953125 315.925781 220.964844 315.804688 L 224.210938 315.953125 C 224.210938 315.953125 225.085938 315.988281 224.757812 316.984375 L 224.542969 318.390625 "/>
<path style=" stroke:none;fill-rule:nonzero;fill:rgb(9.799194%,10.5896%,12.939453%);fill-opacity:1;" d="M 234.140625 323.726562 L 229.566406 326.703125 C 215.222656 335.890625 206.757812 330.886719 206.757812 330.886719 C 206.757812 330.886719 207.078125 332.558594 208.316406 333.105469 C 208.316406 333.105469 218.644531 336.226562 230.605469 328.121094 C 230.605469 328.121094 233.0625 326.792969 234.886719 325.238281 C 234.886719 325.238281 234.761719 323.707031 234.140625 323.726562 "/>
<path style=" stroke:none;fill-rule:nonzero;fill:rgb(100%,100%,100%);fill-opacity:1;" d="M 218.136719 321.496094 L 218.082031 321.242188 L 218.132812 321.496094 L 218.136719 321.496094 L 218.082031 321.242188 L 218.132812 321.496094 C 218.132812 321.496094 218.203125 321.484375 218.332031 321.484375 C 218.582031 321.484375 219.023438 321.53125 219.5625 321.804688 C 220.101562 322.082031 220.742188 322.589844 221.378906 323.554688 C 221.527344 323.78125 221.828125 323.84375 222.054688 323.695312 C 222.277344 323.546875 222.34375 323.246094 222.191406 323.019531 C 221.476562 321.933594 220.703125 321.292969 220.007812 320.9375 C 219.3125 320.582031 218.707031 320.507812 218.332031 320.507812 C 218.105469 320.507812 217.964844 320.535156 217.9375 320.542969 C 217.675781 320.597656 217.503906 320.855469 217.558594 321.117188 C 217.613281 321.382812 217.871094 321.550781 218.136719 321.496094 "/>
<path style=" stroke:none;fill-rule:nonzero;fill:rgb(100%,100%,100%);fill-opacity:1;" d="M 216.523438 322.800781 L 216.5 322.496094 L 216.5 322.800781 L 216.523438 322.800781 L 216.5 322.496094 L 216.5 322.800781 C 216.535156 322.800781 216.925781 322.804688 217.445312 323.0625 C 217.964844 323.320312 218.621094 323.824219 219.207031 324.882812 C 219.335938 325.121094 219.632812 325.203125 219.867188 325.074219 C 220.105469 324.945312 220.191406 324.648438 220.0625 324.414062 C 219.390625 323.195312 218.566406 322.53125 217.878906 322.191406 C 217.191406 321.847656 216.644531 321.824219 216.5 321.824219 L 216.445312 321.824219 C 216.175781 321.847656 215.976562 322.082031 216 322.351562 C 216.019531 322.617188 216.257812 322.820312 216.523438 322.800781 "/>
<path style=" stroke:none;fill-rule:nonzero;fill:rgb(100%,100%,100%);fill-opacity:1;" d="M 215.175781 324.070312 L 215.1875 323.792969 L 215.171875 324.070312 L 215.175781 324.070312 L 215.1875 323.792969 L 215.171875 324.070312 C 215.171875 324.070312 215.253906 324.074219 215.402344 324.113281 C 215.847656 324.238281 216.851562 324.648438 217.757812 326.28125 C 217.890625 326.519531 218.1875 326.605469 218.421875 326.472656 C 218.65625 326.34375 218.742188 326.046875 218.613281 325.8125 C 217.910156 324.535156 217.089844 323.84375 216.425781 323.484375 C 215.765625 323.125 215.269531 323.097656 215.214844 323.09375 C 214.945312 323.085938 214.71875 323.296875 214.707031 323.5625 C 214.699219 323.835938 214.90625 324.058594 215.175781 324.070312 "/>
<path style=" stroke:none;fill-rule:nonzero;fill:rgb(100%,100%,100%);fill-opacity:1;" d="M 213.582031 325.363281 L 213.550781 325.191406 L 213.578125 325.363281 L 213.582031 325.363281 L 213.550781 325.191406 L 213.578125 325.363281 L 213.691406 325.355469 C 213.863281 325.355469 214.199219 325.390625 214.613281 325.628906 C 215.027344 325.867188 215.53125 326.316406 216.019531 327.195312 C 216.148438 327.429688 216.449219 327.515625 216.683594 327.386719 C 216.917969 327.257812 217.003906 326.957031 216.875 326.722656 C 216.320312 325.714844 215.683594 325.117188 215.101562 324.78125 C 214.519531 324.449219 213.996094 324.378906 213.691406 324.382812 C 213.523438 324.382812 213.417969 324.398438 213.386719 324.40625 C 213.125 324.460938 212.953125 324.71875 213.007812 324.980469 C 213.0625 325.246094 213.320312 325.417969 213.582031 325.363281 "/>
<path style=" stroke:none;fill-rule:nonzero;fill:rgb(100%,100%,100%);fill-opacity:1;" d="M 211.464844 326.460938 L 211.429688 326.289062 L 211.457031 326.464844 L 211.464844 326.460938 L 211.429688 326.289062 L 211.457031 326.464844 L 211.570312 326.457031 C 211.742188 326.457031 212.082031 326.492188 212.496094 326.730469 C 212.910156 326.96875 213.414062 327.417969 213.902344 328.300781 C 214.03125 328.535156 214.328125 328.621094 214.5625 328.492188 C 214.800781 328.359375 214.886719 328.0625 214.753906 327.828125 C 214.199219 326.816406 213.566406 326.21875 212.984375 325.882812 C 212.398438 325.546875 211.878906 325.480469 211.570312 325.480469 C 211.40625 325.480469 211.296875 325.5 211.269531 325.503906 C 211.003906 325.558594 210.835938 325.816406 210.890625 326.082031 C 210.945312 326.34375 211.199219 326.515625 211.464844 326.460938 "/>
<path style=" stroke:none;fill-rule:nonzero;fill:rgb(15.689087%,34.118652%,68.629456%);fill-opacity:1;" d="M 229.335938 201.105469 L 176.597656 197.191406 L 176.953125 186.902344 L 180.074219 163.449219 L 229.371094 166.492188 C 229.371094 166.492188 230.992188 181.679688 229.335938 201.105469 "/>
<path style=" stroke:none;fill-rule:nonzero;fill:rgb(11.369324%,11.759949%,19.60907%);fill-opacity:1;" d="M 206.1875 185.582031 C 208.050781 194.539062 215.558594 200.8125 224.511719 201.167969 C 224.734375 201.175781 224.925781 201.003906 224.933594 200.777344 C 224.941406 200.550781 224.769531 200.363281 224.542969 200.351562 C 215.957031 200.007812 208.78125 194.011719 206.984375 185.414062 C 206.9375 185.195312 206.722656 185.050781 206.503906 185.101562 C 206.28125 185.144531 206.140625 185.359375 206.1875 185.582031 "/>
<path style=" stroke:none;fill-rule:nonzero;fill:rgb(15.689087%,34.118652%,68.629456%);fill-opacity:1;" d="M 197.394531 239.140625 L 210.652344 191.125 L 176.953125 186.902344 L 174.613281 235.175781 C 174.613281 235.175781 184.363281 242.054688 197.394531 239.140625 "/>
<path style=" stroke:none;fill-rule:nonzero;fill:rgb(15.689087%,34.118652%,68.629456%);fill-opacity:1;" d="M 226.96875 239.859375 L 230.324219 190.921875 C 228.941406 168.691406 199.933594 169.304688 199.933594 169.304688 L 199.101562 196.765625 L 199.777344 239.859375 C 199.777344 239.859375 210.769531 247.265625 226.96875 239.859375 "/>
<path style=" stroke:none;fill-rule:nonzero;fill:rgb(11.369324%,11.759949%,19.60907%);fill-opacity:1;" d="M 182.390625 171.402344 C 188.867188 171.78125 192.683594 171.898438 195.636719 171.898438 C 199.019531 171.898438 201.246094 171.746094 205.015625 171.675781 C 205.25 171.671875 205.5 171.667969 205.769531 171.667969 C 207.328125 171.667969 209.550781 171.730469 212.234375 171.730469 C 216.804688 171.730469 222.71875 171.550781 229.027344 170.582031 C 229.25 170.546875 229.402344 170.339844 229.367188 170.117188 C 229.332031 169.894531 229.125 169.742188 228.902344 169.773438 C 222.652344 170.734375 216.785156 170.914062 212.234375 170.914062 C 209.5625 170.914062 207.347656 170.851562 205.769531 170.851562 C 205.496094 170.851562 205.238281 170.855469 205.003906 170.859375 C 201.214844 170.929688 198.988281 171.082031 195.636719 171.082031 C 192.707031 171.082031 188.90625 170.96875 182.441406 170.585938 C 182.214844 170.574219 182.019531 170.746094 182.007812 170.96875 C 181.996094 171.195312 182.167969 171.390625 182.390625 171.402344 "/>
<path style=" stroke:none;fill-rule:nonzero;fill:rgb(44.709778%,22.749329%,15.689087%);fill-opacity:1;" d="M 206.925781 70.074219 C 207.121094 69.542969 207.699219 68.113281 207.867188 67.777344 C 211.972656 59.421875 211.246094 47.015625 204.386719 44.65625 C 196.164062 41.828125 196.746094 55.195312 196.367188 58.914062 C 195.9375 63.214844 195.707031 67.84375 197.558594 71.832031 C 198.257812 73.335938 199.957031 75.609375 201.71875 75.421875 C 203.664062 75.210938 205.988281 72.621094 206.925781 70.074219 "/>
<path style=" stroke:none;fill-rule:nonzero;fill:rgb(96.469116%,58.428955%,45.878601%);fill-opacity:1;" d="M 209.0625 61.027344 C 209.542969 63.355469 208.75 66.242188 206.835938 67.609375 C 204.242188 69.46875 202.644531 67.066406 202.15625 64.515625 C 201.761719 62.457031 201.988281 58.738281 204.183594 57.5625 C 206.253906 56.453125 208.671875 59.121094 209.0625 61.027344 "/>
<path style=" stroke:none;fill-rule:nonzero;fill:rgb(96.469116%,58.428955%,45.878601%);fill-opacity:1;" d="M 206.332031 66.507812 L 192.121094 67.125 L 192.96875 86.628906 L 207.175781 86.011719 L 206.332031 66.507812 "/>
<path style=" stroke:none;fill-rule:nonzero;fill:rgb(90.19928%,45.098877%,32.548523%);fill-opacity:1;" d="M 202.5 78.316406 C 203.796875 75.265625 204.511719 72.207031 204.117188 68.453125 L 192.203125 68.96875 L 192.867188 84.316406 C 196.585938 83.582031 201.117188 81.566406 202.5 78.316406 "/>
<path style=" stroke:none;fill-rule:nonzero;fill:rgb(96.469116%,58.428955%,45.878601%);fill-opacity:1;" d="M 186.703125 89.539062 L 192.886719 84.503906 L 207.089844 83.898438 L 214.960938 88.335938 L 186.703125 89.539062 "/>
<path style=" stroke:none;fill-rule:nonzero;fill:rgb(46.669006%,43.528748%,74.899292%);fill-opacity:1;" d="M 232.660156 182.277344 C 230.3125 166.859375 229.394531 131.929688 229.394531 131.929688 L 231.117188 99.183594 C 231.929688 92.613281 226.113281 90.742188 226.113281 90.742188 L 207.320312 83.785156 C 199.539062 90.179688 192.867188 84.316406 192.867188 84.316406 L 182.796875 88.914062 C 182.796875 88.914062 178.011719 91.773438 177.347656 100.175781 L 179.859375 136.832031 C 180.066406 145.605469 179.625 147.632812 179.050781 159.03125 C 178.878906 162.507812 177.566406 172.445312 177.652344 175.925781 C 188.484375 182.203125 195.488281 184.128906 207.945312 185.496094 C 207.945312 185.496094 225.308594 186.902344 232.660156 182.277344 "/>
<path style=" stroke:none;fill-rule:nonzero;fill:rgb(11.369324%,11.759949%,19.60907%);fill-opacity:1;" d="M 177.011719 101.835938 C 177.820312 113.054688 178.46875 121.605469 179.191406 130.789062 C 179.371094 133.066406 179.4375 135.105469 179.4375 137.136719 C 179.4375 142.234375 179.003906 147.335938 178.792969 156.160156 C 178.730469 158.839844 178.125 164.542969 177.246094 175.894531 C 177.226562 176.121094 177.394531 176.316406 177.621094 176.335938 C 177.84375 176.351562 178.042969 176.183594 178.058594 175.957031 C 178.9375 164.605469 179.542969 158.9375 179.613281 156.179688 C 179.820312 147.375 180.253906 142.28125 180.253906 137.136719 C 180.253906 135.085938 180.183594 133.027344 180.003906 130.726562 C 179.285156 121.542969 178.632812 112.992188 177.824219 101.777344 C 177.808594 101.550781 177.613281 101.382812 177.386719 101.398438 C 177.164062 101.414062 176.992188 101.609375 177.011719 101.835938 "/>
<path style=" stroke:none;fill-rule:nonzero;fill:rgb(11.369324%,11.759949%,19.60907%);fill-opacity:1;" d="M 207.632812 152.078125 C 213.882812 159.550781 216.8125 164.691406 223.863281 171.089844 C 224.03125 171.242188 224.289062 171.230469 224.441406 171.0625 C 224.59375 170.898438 224.582031 170.636719 224.414062 170.488281 C 217.449219 164.171875 214.554688 159.089844 208.257812 151.554688 C 208.113281 151.382812 207.855469 151.359375 207.683594 151.503906 C 207.511719 151.648438 207.488281 151.90625 207.632812 152.078125 "/>
<path style=" stroke:none;fill-rule:nonzero;fill:rgb(11.369324%,11.759949%,19.60907%);fill-opacity:1;" d="M 212.019531 165.65625 C 211.917969 166.023438 211.847656 166.589844 211.792969 167.296875 C 211.738281 168 211.703125 168.824219 211.703125 169.648438 C 211.703125 170.609375 211.75 171.566406 211.859375 172.324219 C 211.914062 172.703125 211.984375 173.035156 212.089844 173.304688 C 212.140625 173.445312 212.199219 173.570312 212.285156 173.683594 C 212.367188 173.796875 212.484375 173.90625 212.65625 173.96875 C 212.871094 174.035156 213.101562 173.921875 213.171875 173.707031 C 213.242188 173.496094 213.128906 173.261719 212.914062 173.191406 L 212.875 173.308594 L 212.953125 173.210938 L 212.914062 173.191406 L 212.875 173.308594 L 212.953125 173.210938 C 212.933594 173.199219 212.851562 173.058594 212.796875 172.84375 C 212.609375 172.191406 212.519531 170.917969 212.519531 169.648438 C 212.519531 168.847656 212.550781 168.039062 212.605469 167.359375 C 212.65625 166.683594 212.734375 166.125 212.804688 165.878906 C 212.867188 165.660156 212.738281 165.433594 212.523438 165.375 C 212.304688 165.3125 212.078125 165.441406 212.019531 165.65625 "/>
<path style=" stroke:none;fill-rule:nonzero;fill:rgb(11.369324%,11.759949%,19.60907%);fill-opacity:1;" d="M 223.527344 122.351562 C 224.246094 127.183594 225.226562 139.335938 226.292969 151.457031 C 226.828125 157.519531 227.382812 163.578125 227.941406 168.730469 C 228.5 173.878906 229.058594 178.105469 229.605469 180.546875 C 229.65625 180.765625 229.875 180.902344 230.09375 180.851562 C 230.3125 180.804688 230.453125 180.585938 230.402344 180.367188 C 229.871094 178.003906 229.308594 173.777344 228.753906 168.640625 C 227.917969 160.933594 227.085938 151.160156 226.328125 142.402344 C 225.566406 133.644531 224.882812 125.90625 224.335938 122.230469 C 224.300781 122.007812 224.09375 121.855469 223.871094 121.886719 C 223.648438 121.921875 223.496094 122.128906 223.527344 122.351562 "/>
<path style=" stroke:none;fill-rule:nonzero;fill:rgb(96.469116%,58.428955%,45.878601%);fill-opacity:1;" d="M 204.433594 68.480469 C 203.742188 72.097656 202.441406 75.203125 199.652344 77.75 C 196.917969 80.242188 193.902344 81.828125 190.441406 79.933594 C 187.6875 78.425781 185.59375 75.859375 184.179688 73.140625 C 180.914062 66.882812 180.671875 57.402344 183.871094 51.246094 C 187.382812 44.480469 196.59375 44.074219 201.316406 49.964844 C 205.160156 54.765625 205.554688 62.644531 204.433594 68.480469 "/>
<path style=" stroke:none;fill-rule:nonzero;fill:rgb(79.60968%,41.569519%,29.798889%);fill-opacity:1;" d="M 203.042969 64.070312 C 203.054688 65.367188 202.816406 67.164062 202.683594 67.597656 C 201.914062 70.066406 199.570312 70.648438 197.378906 69.570312 C 196.34375 69.058594 195.265625 68.46875 194.078125 68.84375 C 192.929688 69.207031 191.792969 69.59375 190.667969 70.015625 C 189.414062 70.496094 188.367188 70.910156 187.65625 72.078125 C 187.492188 72.347656 187.09375 72.609375 186.796875 72.703125 C 184.777344 73.34375 184.136719 70.90625 182.816406 69.785156 C 183.1875 70.972656 183.636719 72.101562 184.179688 73.140625 C 185.59375 75.859375 187.6875 78.425781 190.441406 79.933594 C 193.90625 81.828125 196.917969 80.242188 199.652344 77.75 C 202.441406 75.203125 203.742188 72.097656 204.433594 68.480469 C 204.714844 67.027344 204.460938 64.964844 204.519531 63.339844 C 204.082031 63.542969 203.683594 63.605469 203.042969 64.070312 "/>
<path style=" stroke:none;fill-rule:nonzero;fill:rgb(90.19928%,45.098877%,32.548523%);fill-opacity:1;" d="M 206.144531 59.339844 C 205.414062 59.929688 205.09375 60.917969 205.09375 62.019531 C 205.09375 63.050781 205.371094 64.207031 205.9375 65.34375 C 206.039062 65.546875 206.28125 65.628906 206.488281 65.527344 C 206.6875 65.429688 206.773438 65.183594 206.667969 64.980469 C 206.15625 63.949219 205.910156 62.898438 205.910156 62.019531 C 205.910156 61.066406 206.199219 60.335938 206.65625 59.980469 C 206.832031 59.835938 206.863281 59.582031 206.71875 59.40625 C 206.578125 59.230469 206.320312 59.199219 206.144531 59.339844 "/>
<path style=" stroke:none;fill-rule:nonzero;fill:rgb(90.19928%,45.098877%,32.548523%);fill-opacity:1;" d="M 207.898438 61.101562 C 207.605469 61.039062 207.265625 60.992188 206.910156 60.992188 C 206.359375 60.996094 205.757812 61.089844 205.304688 61.503906 C 205.136719 61.65625 205.128906 61.914062 205.285156 62.082031 C 205.4375 62.246094 205.695312 62.253906 205.863281 62.101562 C 206.050781 61.917969 206.460938 61.808594 206.910156 61.8125 C 207.191406 61.8125 207.484375 61.851562 207.722656 61.902344 C 207.941406 61.949219 208.160156 61.808594 208.210938 61.589844 C 208.257812 61.367188 208.117188 61.152344 207.898438 61.101562 "/>
<path style=" stroke:none;fill-rule:nonzero;fill:rgb(11.369324%,11.759949%,19.60907%);fill-opacity:1;" d="M 186.949219 63.820312 C 187.070312 64.5625 186.808594 65.226562 186.359375 65.296875 C 185.914062 65.371094 185.457031 64.828125 185.332031 64.082031 C 185.210938 63.339844 185.472656 62.679688 185.921875 62.605469 C 186.367188 62.53125 186.828125 63.074219 186.949219 63.820312 "/>
<path style=" stroke:none;fill-rule:nonzero;fill:rgb(11.369324%,11.759949%,19.60907%);fill-opacity:1;" d="M 196.621094 62.242188 C 196.742188 62.984375 196.480469 63.648438 196.03125 63.71875 C 195.585938 63.792969 195.125 63.25 195.003906 62.507812 C 194.878906 61.761719 195.148438 61.101562 195.59375 61.03125 C 196.039062 60.953125 196.496094 61.5 196.621094 62.242188 "/>
<path style=" stroke:none;fill-rule:nonzero;fill:rgb(96.078491%,48.629761%,43.139648%);fill-opacity:1;" d="M 198.570312 64.550781 C 198.65625 65.082031 197.753906 65.667969 196.558594 65.863281 C 195.363281 66.058594 194.320312 65.789062 194.234375 65.261719 C 194.152344 64.734375 195.050781 64.144531 196.246094 63.949219 C 197.441406 63.753906 198.484375 64.027344 198.570312 64.550781 "/>
<path style=" stroke:none;fill-rule:nonzero;fill:rgb(96.078491%,48.629761%,43.139648%);fill-opacity:1;" d="M 188.023438 66.898438 C 188.109375 67.425781 187.210938 68.011719 186.011719 68.207031 C 184.816406 68.402344 183.777344 68.136719 183.691406 67.605469 C 183.605469 67.078125 184.503906 66.488281 185.699219 66.296875 C 186.898438 66.097656 187.933594 66.371094 188.023438 66.898438 "/>
<path style=" stroke:none;fill-rule:nonzero;fill:rgb(90.19928%,45.098877%,32.548523%);fill-opacity:1;" d="M 188.535156 60.382812 C 188.878906 60.664062 189.226562 60.777344 189.460938 60.992188 C 189.6875 61.203125 189.871094 61.457031 189.882812 62.160156 C 189.882812 62.976562 189.566406 64.363281 188.585938 66.625 C 188.5 66.832031 188.449219 67.035156 188.449219 67.234375 C 188.445312 67.453125 188.511719 67.667969 188.628906 67.835938 C 188.808594 68.089844 189.070312 68.234375 189.339844 68.324219 C 189.617188 68.414062 189.914062 68.445312 190.222656 68.449219 C 190.898438 68.445312 191.617188 68.285156 192.171875 67.992188 C 192.367188 67.882812 192.445312 67.636719 192.335938 67.4375 C 192.230469 67.238281 191.980469 67.164062 191.785156 67.269531 C 191.398438 67.480469 190.757812 67.632812 190.222656 67.628906 C 189.898438 67.632812 189.609375 67.570312 189.453125 67.488281 C 189.375 67.445312 189.328125 67.402344 189.304688 67.367188 L 189.265625 67.234375 C 189.265625 67.175781 189.285156 67.078125 189.339844 66.949219 C 190.335938 64.636719 190.699219 63.179688 190.699219 62.160156 C 190.710938 61.289062 190.394531 60.710938 190 60.375 C 189.613281 60.046875 189.214844 59.902344 189.070312 59.761719 C 188.898438 59.617188 188.636719 59.636719 188.492188 59.808594 C 188.34375 59.980469 188.363281 60.234375 188.535156 60.382812 "/>
<path style=" stroke:none;fill-rule:nonzero;fill:rgb(52.159119%,26.669312%,18.429565%);fill-opacity:1;" d="M 188.515625 58.390625 C 188.042969 58.125 187.289062 57.859375 186.324219 57.859375 C 185.472656 57.855469 184.464844 58.078125 183.433594 58.703125 C 183.085938 58.914062 182.976562 59.367188 183.1875 59.714844 C 183.398438 60.0625 183.847656 60.171875 184.195312 59.960938 C 185 59.472656 185.71875 59.328125 186.324219 59.324219 C 187.003906 59.324219 187.550781 59.527344 187.785156 59.667969 C 188.136719 59.871094 188.585938 59.746094 188.789062 59.394531 C 188.992188 59.042969 188.867188 58.59375 188.515625 58.390625 "/>
<path style=" stroke:none;fill-rule:nonzero;fill:rgb(52.159119%,26.669312%,18.429565%);fill-opacity:1;" d="M 197.644531 58.300781 C 196.890625 57.699219 195.890625 57.386719 194.875 57.382812 C 193.996094 57.382812 193.082031 57.628906 192.359375 58.246094 C 192.050781 58.511719 192.015625 58.976562 192.28125 59.285156 C 192.546875 59.589844 193.011719 59.625 193.316406 59.359375 C 193.699219 59.027344 194.265625 58.851562 194.875 58.851562 C 195.574219 58.847656 196.300781 59.097656 196.722656 59.445312 C 197.035156 59.699219 197.5 59.652344 197.753906 59.335938 C 198.011719 59.019531 197.960938 58.554688 197.644531 58.300781 "/>
<path style=" stroke:none;fill-rule:nonzero;fill:rgb(44.709778%,22.749329%,15.689087%);fill-opacity:1;" d="M 205.636719 49.429688 C 202.234375 47.699219 199.222656 51.175781 199.222656 51.175781 C 198.308594 52.089844 199.941406 55.011719 200.304688 55.707031 C 201.675781 58.308594 202.425781 61.28125 203.042969 64.070312 C 203.527344 63.808594 204.019531 63.570312 204.519531 63.339844 C 204.5625 62.066406 204.195312 58.953125 204.679688 58.320312 C 205.980469 56.617188 207.808594 58.378906 208.292969 59.355469 C 209.132812 51.632812 205.636719 49.429688 205.636719 49.429688 "/>
<path style=" stroke:none;fill-rule:nonzero;fill:rgb(96.078491%,48.629761%,43.139648%);fill-opacity:1;" d="M 190.632812 72.8125 C 190.738281 72.828125 190.847656 72.835938 190.953125 72.835938 C 191.449219 72.835938 191.945312 72.695312 192.382812 72.457031 C 192.824219 72.21875 193.207031 71.886719 193.457031 71.460938 C 193.566406 71.265625 193.503906 71.015625 193.304688 70.902344 C 193.109375 70.789062 192.859375 70.855469 192.746094 71.050781 C 192.601562 71.3125 192.324219 71.5625 191.996094 71.738281 C 191.667969 71.914062 191.289062 72.019531 190.953125 72.015625 L 190.742188 72.003906 C 190.519531 71.972656 190.3125 72.128906 190.28125 72.351562 C 190.25 72.578125 190.40625 72.785156 190.632812 72.8125 "/>
<path style=" stroke:none;fill-rule:nonzero;fill:rgb(96.469116%,58.428955%,45.878601%);fill-opacity:1;" d="M 220.917969 112.636719 C 220.917969 112.636719 222.199219 130.046875 233.128906 143.121094 C 237.035156 149.480469 244.796875 148.613281 245.113281 147.203125 C 247.355469 137.203125 243.179688 125.210938 240.773438 119.582031 C 235.527344 107.332031 233.398438 104.730469 233.398438 104.730469 C 233.398438 104.730469 223.0625 101.703125 220.917969 112.636719 "/>
<path style=" stroke:none;fill-rule:nonzero;fill:rgb(96.469116%,58.428955%,45.878601%);fill-opacity:1;" d="M 230.867188 95.890625 C 236.628906 103.566406 236.761719 109.789062 233.726562 114.203125 C 230.695312 118.621094 222.511719 116.726562 219.011719 112.628906 C 214.101562 106.882812 211.402344 101.308594 214.523438 95.6875 C 218.417969 88.691406 227.628906 91.582031 230.867188 95.890625 "/>
<path style=" stroke:none;fill-rule:nonzero;fill:rgb(46.669006%,43.528748%,74.899292%);fill-opacity:1;" d="M 215.070312 90.910156 C 215.070312 90.910156 203.976562 102.507812 224.140625 127.191406 C 224.140625 127.191406 238.257812 125.019531 243.601562 116.09375 C 243.601562 116.09375 236.292969 99.628906 228.023438 91.761719 C 228.023438 91.761719 220.132812 86.890625 215.070312 90.910156 "/>
<path style=" stroke:none;fill-rule:nonzero;fill:rgb(11.369324%,11.759949%,19.60907%);fill-opacity:1;" d="M 223.289062 125.476562 C 217.878906 119.277344 212.265625 110.179688 212.273438 101.558594 C 212.273438 98.605469 212.921875 95.710938 214.449219 92.976562 C 214.558594 92.777344 214.488281 92.53125 214.292969 92.421875 C 214.097656 92.3125 213.847656 92.382812 213.738281 92.578125 C 212.136719 95.445312 211.457031 98.488281 211.457031 101.558594 C 211.46875 110.535156 217.199219 119.722656 222.675781 126.011719 C 222.824219 126.179688 223.082031 126.199219 223.253906 126.050781 C 223.421875 125.902344 223.4375 125.644531 223.289062 125.476562 "/>
<path style=" stroke:none;fill-rule:nonzero;fill:rgb(52.159119%,26.669312%,18.429565%);fill-opacity:1;" d="M 190.230469 50.28125 C 190.230469 50.28125 196.164062 46.988281 199.089844 52.902344 C 199.089844 52.902344 207.484375 50.527344 204.386719 44.65625 C 204.386719 44.65625 185.636719 38.074219 182.09375 49.734375 L 183.871094 51.242188 C 183.871094 51.242188 186.300781 48.179688 190.230469 50.28125 "/>
<path style=" stroke:none;fill-rule:nonzero;fill:rgb(40.388489%,20.388794%,13.729858%);fill-opacity:1;" d="M 185.820312 48.289062 C 184.773438 48.953125 184.160156 49.984375 183.984375 51.117188 C 184.492188 50.566406 186.761719 48.464844 190.179688 50.257812 C 189.1875 48.671875 187.925781 46.953125 185.820312 48.289062 "/>
<path style=" stroke:none;fill-rule:nonzero;fill:rgb(52.159119%,26.669312%,18.429565%);fill-opacity:1;" d="M 190.230469 50.28125 C 190.230469 50.28125 197.183594 45.195312 198.214844 58.964844 L 198.570312 64.554688 L 199.480469 64.5625 L 199.75 61.585938 L 200.554688 64.0625 C 200.554688 64.0625 210.003906 60.238281 211.054688 55.386719 C 211.054688 55.386719 209.417969 42.59375 202.0625 41.40625 C 202.0625 41.40625 188.234375 39.75 190.230469 50.28125 "/>
<path style=" stroke:none;fill-rule:nonzero;fill:rgb(40.388489%,20.388794%,13.729858%);fill-opacity:1;" d="M 196.875 50.171875 C 195.503906 46.785156 191.644531 46.386719 190.382812 50.097656 L 190.300781 50.234375 C 190.964844 49.792969 196.261719 46.601562 197.875 56.125 C 197.878906 54.078125 197.625 52.023438 196.875 50.171875 "/>
<path style=" stroke:none;fill-rule:nonzero;fill:rgb(11.369324%,11.759949%,19.60907%);fill-opacity:1;" d="M 157.714844 116.152344 L 143.195312 110.132812 L 144.996094 105.796875 L 159.515625 111.816406 L 157.714844 116.152344 "/>
<g clip-path="url(#clip1)" clip-rule="nonzero">
<path style=" stroke:none;fill-rule:nonzero;fill:rgb(11.369324%,11.759949%,19.60907%);fill-opacity:1;" d="M 127.453125 105.167969 L 129.546875 111.3125 L 136.644531 114.253906 L 142.722656 111.269531 L 145.734375 104.015625 L 143.457031 98.320312 L 136.355469 95.375 L 130.710938 97.324219 L 127.453125 105.167969 "/>
</g>
<path style=" stroke:none;fill-rule:nonzero;fill:rgb(11.369324%,11.759949%,19.60907%);fill-opacity:1;" d="M 172.351562 123.78125 L 166.519531 126.640625 L 159.421875 123.699219 L 157.242188 117.289062 L 160.257812 110.035156 L 165.902344 107.625 L 173 110.566406 L 175.609375 115.9375 L 172.351562 123.78125 "/>
<path style=" stroke:none;fill-rule:nonzero;fill:rgb(96.469116%,58.428955%,45.878601%);fill-opacity:1;" d="M 243.601562 148.0625 C 243.601562 148.0625 230.324219 154.8125 214.691406 134.742188 L 207.808594 123.84375 L 211.867188 122.222656 L 235.691406 136.386719 C 235.691406 136.386719 246.113281 141.902344 243.601562 148.0625 "/>
<path style=" stroke:none;fill-rule:nonzero;fill:rgb(11.369324%,11.759949%,19.60907%);fill-opacity:1;" d="M 217.527344 114.097656 L 203.320312 120.824219 L 201.308594 116.582031 L 215.519531 109.859375 L 217.527344 114.097656 "/>
<path style=" stroke:none;fill-rule:nonzero;fill:rgb(11.369324%,11.759949%,19.60907%);fill-opacity:1;" d="M 189.078125 129.164062 L 195.042969 131.734375 L 201.988281 128.445312 L 203.851562 121.9375 L 200.484375 114.839844 L 194.726562 112.707031 L 187.78125 115.996094 L 185.441406 121.488281 L 189.078125 129.164062 "/>
<path style=" stroke:none;fill-rule:nonzero;fill:rgb(11.369324%,11.759949%,19.60907%);fill-opacity:1;" d="M 233.007812 108.371094 L 231.21875 114.609375 L 224.273438 117.894531 L 218.058594 115.214844 L 214.691406 108.113281 L 216.6875 102.3125 L 223.636719 99.027344 L 229.371094 100.695312 L 233.007812 108.371094 "/>
<path style=" stroke:none;fill-rule:nonzero;fill:rgb(96.859741%,56.469727%,43.139648%);fill-opacity:1;" d="M 211.578125 123.378906 C 211.074219 124.015625 210.265625 124.535156 209.429688 124.445312 C 207.546875 124.242188 205.914062 122.253906 204.804688 120.914062 C 203.390625 119.210938 201.140625 117.152344 201.675781 114.683594 C 201.757812 114.304688 202.058594 113.945312 202.210938 113.585938 C 202.53125 112.832031 202.097656 112.390625 202.867188 111.980469 C 203.304688 111.746094 203.953125 110.667969 204.394531 110.585938 C 204.828125 110.507812 205.613281 109.324219 206.015625 109.21875 C 208.433594 108.574219 209.980469 108.335938 210.714844 109.289062 C 211.15625 109.859375 212.667969 112.527344 213.988281 112.917969 C 213.988281 112.917969 215.214844 113.550781 214.363281 116.710938 L 211.578125 123.378906 "/>
<path style=" stroke:none;fill-rule:nonzero;fill:rgb(96.469116%,58.428955%,45.878601%);fill-opacity:1;" d="M 153.179688 118.828125 C 152.675781 119.464844 151.863281 119.984375 151.03125 119.894531 C 149.148438 119.695312 147.515625 117.703125 146.402344 116.367188 C 144.988281 114.660156 142.742188 112.605469 143.277344 110.136719 C 143.359375 109.757812 143.660156 109.398438 143.8125 109.039062 C 144.132812 108.28125 143.699219 107.84375 144.46875 107.433594 C 144.90625 107.199219 145.550781 106.117188 145.992188 106.035156 C 146.429688 105.957031 147.214844 104.777344 147.613281 104.667969 C 150.03125 104.023438 151.578125 103.789062 152.316406 104.738281 C 152.753906 105.3125 154.273438 107.976562 155.589844 108.367188 C 155.589844 108.367188 156.816406 109.003906 155.960938 112.164062 L 153.179688 118.828125 "/>
<path style=" stroke:none;fill-rule:nonzero;fill:rgb(96.469116%,58.428955%,45.878601%);fill-opacity:1;" d="M 177.03125 145.738281 C 177.03125 145.738281 166.535156 149.613281 154.671875 131.355469 L 147.050781 117.132812 L 152.21875 117.132812 L 173.636719 134.140625 C 173.636719 134.140625 179.542969 139.578125 177.03125 145.738281 "/>
<path style=" stroke:none;fill-rule:nonzero;fill:rgb(11.369324%,11.759949%,19.60907%);fill-opacity:1;" d="M 193.875 185.636719 C 196.757812 199.703125 197.667969 219.410156 199.375 233.957031 C 199.398438 234.179688 199.601562 234.339844 199.828125 234.3125 C 200.050781 234.289062 200.210938 234.085938 200.183594 233.859375 C 198.480469 219.355469 197.578125 199.644531 194.675781 185.472656 C 194.632812 185.253906 194.414062 185.113281 194.195312 185.15625 C 193.972656 185.199219 193.832031 185.417969 193.875 185.636719 "/>
</g>
</svg>
