[
    {
        "name": "Push-Ups",
        "category": "All Exercises",

        "id": 1001,
        "isFavorite": true,
        "link": "https://cdn.videvo.net/videvo_files/video/free/2018-09/small_watermarked/180419_Boxing_07_04_preview.mp4",
        "description": "Pushups are beneficial for building upper body strength. They work the triceps, pectoral muscles, and shoulders. When done with proper form, they can also strengthen the lower back and core by engaging (pulling in) the abdominal muscles.",
        "imageName": "pushUps"
    },
    
    {
        "name": "Run",
        "category": "All Exercises",
        "link": "https://cdn.videvo.net/videvo_files/video/free/2018-05/small_watermarked/180419_Boxing_13_05_preview.mp4",

        "id": 1002,
        "isFavorite": true,
        "description": "Running is a great way to help improve cardiovascular health. It burns calories and can build strength. There's also a long list of psychological benefits runners gain.",
        "imageName": "run"
    },
    
    {
        "name": "Squats",
        "category": "All Exercises",
        "link": "https://cdn.videvo.net/videvo_files/video/free/2019-03/small_watermarked/180419_Boxing_17_13_preview.mp4",

        "id": 1003,
        "isFavorite": true,
        "description": "Squats help to build muscle, burn calories fast, improve flexibility. This kind of. exercise also keeps your bones strong, improves your speed and ability to jump.",
        "imageName": "3"
    },
    
    {
        "name": "Biceps",
        "category": "All Exercises",

        "id": 1004,
        "link": "https://cdn.videvo.net/videvo_files/video/free/2019-03/small_watermarked/180419_Boxing_17_10_preview.mp4",
        "isFavorite": true,
        "description": "Biceps exercises improve your bone density and help you achieve aerobic benefits at the same time that your muscles are strengthened. The most important function of biceps is to supinate the forearm and flex the elbow. Besides, the long head of biceps prevents the upward displacement of the head of the humerus.",
        "imageName": "4"
    }
    ,
    {
        "name": "Pull-Ups",
        "category": "All Exercises",

        "id": 1005,
        "link": "https://cdn.videvo.net/videvo_files/video/free/2018-09/small_watermarked/180419_Boxing_06_01_preview.mp4",
        "isFavorite": true,
        "description": "When you're performing a pullup, you're lifting your entire body mass with the movement. This can greatly improve your body strength and even improve your health.Muscles involved: Mostly Biceps, Abdominals",
        "imageName": "5"
    }
    ,
    {
        "name": "Bench Press",
        "category": "All Exercises",

        "id": 1006,
        "link": "https://cdn.videvo.net/videvo_files/video/free/2019-03/small_watermarked/180419_Boxing_17_12_preview.mp4",
        "isFavorite": true,
        "description": "Bench Press increases upper body strength, improves muscular endurance, and even prepares your upper body to do movements like pushups. It helps developing big powerful chest. Muscles involved: Mostly Chest muscles and Triceps.",
        "imageName": "6"
    }
    ,
    {
        "name": "ABS Workout",
        "category": "All Exercises",

        "id": 1007,
        "link": "https://cdn.videvo.net/videvo_files/video/free/2018-05/small_watermarked/180419_Boxing_15_04_preview.mp4",
        "isFavorite": true,
        "description": "Strong abdominal muscles can help improve posture and balance. They can also help reduce back pain and increase flexibility.",
        "imageName": "7"
    }
    
    ,
    {
        "name": "Boxing",
        "category": "All Exercises",

        "id": 1008,
        "link": "https://cdn.videvo.net/videvo_files/video/free/2018-06/small_watermarked/180419_Boxing_A1_24_preview.mp4",
        "isFavorite": true,
        "description": "Benefits of boxing are improving balance, better posture, strengthening upper-body and core, boosting endurance, improving coordination.",
        "imageName": "8"
    }
    
    ,
    {
        "name": "Skipping",
        "category": "All Exercises",

        "id": 1009,
        "link": "https://cdn.videvo.net/videvo_files/video/free/2019-03/small_watermarked/180419_Boxing_20_15_preview.mp4",
        "isFavorite": true,
        "description": "Skipping rope helps you lose fat, improves coordination and balance, increases body flexibility and stamina.",
        "imageName": "9"
    }
    
    ,
    
    {
        "name": "Swimming",
        "category": "All Exercises",

        "id": 1010,
        "link": "https://cdn.videvo.net/videvo_files/video/free/2019-03/small_watermarked/181004_16_SNORKELING_06_preview.mp4",
        "isFavorite": true,
        "description": "Benefits of swimming are building endurance, muscle strength and cardiovascular fitness. It also helps maintain a healthy weight, healthy heart and lungs.",
        "imageName": "10"
    }
    
    
    ,
    
    {
        "name": "Cross Trainer",
        "category": "All Exercises",

        "id": 1011,
        "link": "https://cdn.videvo.net/videvo_files/video/free/2018-05/small_watermarked/180419_Boxing_05_13_preview.mp4",
        "isFavorite": true,
        "description": "Unlike many other cardio machines, cross trainers work the entire body, providing a full body workout and increasing the number of calories burned.",
        "imageName": "11"
    }
    
    ,
    
    {
        "name": "Weight lifting",
        "category": "All Exercises",

        "id": 1012,
        "link": "https://cdn.videvo.net/videvo_files/video/free/2018-06/small_watermarked/180419_Boxing_07_07_preview.mp4",
        "isFavorite": true,
        "description": "Weight lifting increases metabolism, prevents injury, improves physical fitness and helps you to gain the muscle mass and lose fat.",
        "imageName": "12"
    }
    
    ,
    
    {
        "name": "Deadlifting",
        "category": "All Exercises",

        "id": 1013,
        "link": "https://cdn.videvo.net/videvo_files/video/free/2019-03/small_watermarked/180419_Boxing_17_16_preview.mp4",
        "isFavorite": true,
        "description": "Deadlifting can increase core strength, core stability and improve your posture. It also trains most of the muscles in the legs, lower back and core. These are all muscles responsible for posture.",
        "imageName": "13"
    }
    ,
    
    {
        "name": "Rest",
        "category": "All Exercises",

        "id": 1014,
        "link": "https://cdn.videvo.net/videvo_files/video/free/2014-07/small_watermarked/Sheep_preview.mp4",
        "isFavorite": true,
        "description": "Just relax and take a look at this beautiful sheep",
        "imageName": "14"
    }

    
]
