<?xml version="1.0" encoding="UTF-8"?>
<svg xmlns="http://www.w3.org/2000/svg" xmlns:xlink="http://www.w3.org/1999/xlink" width="375pt" height="374.999991pt" viewBox="0 0 375 374.999991" version="1.2">
<defs>
<clipPath id="clip1">
  <path d="M 79.457031 29.566406 L 295.375 29.566406 L 295.375 345.222656 L 79.457031 345.222656 Z M 79.457031 29.566406 "/>
</clipPath>
</defs>
<g id="surface1">
<g clip-path="url(#clip1)" clip-rule="nonzero">
<path style=" stroke:none;fill-rule:nonzero;fill:rgb(6.269836%,5.879211%,5.099487%);fill-opacity:1;" d="M 236.65625 141.238281 L 230.660156 141.238281 L 230.660156 189.773438 C 230.660156 192.746094 228.332031 195.40625 224.996094 195.40625 L 202.414062 195.40625 C 200.761719 195.40625 199.777344 194.089844 199.777344 192.746094 L 199.777344 166.824219 C 199.777344 165.171875 198.433594 164.160156 197.117188 164.160156 L 178.148438 164.160156 C 176.492188 164.160156 175.511719 165.507812 175.511719 166.824219 L 175.511719 192.746094 C 175.511719 194.398438 174.167969 195.40625 172.851562 195.40625 L 150.238281 195.40625 C 147.238281 195.40625 144.605469 193.082031 144.605469 189.773438 L 144.605469 141.238281 L 138.609375 141.238281 C 132.304688 141.238281 128.96875 133.585938 133.621094 128.9375 L 182.796875 79.753906 C 185.460938 77.09375 190.113281 77.09375 193.109375 79.753906 L 242.316406 128.9375 C 246.292969 133.585938 242.960938 141.238281 236.65625 141.238281 Z M 187.449219 29.566406 C 127.988281 29.566406 79.457031 77.765625 79.457031 137.566406 C 79.457031 178.789062 130.960938 275.191406 162.875 331.011719 C 173.832031 349.957031 201.433594 349.957031 212.050781 331.011719 C 243.96875 275.191406 295.46875 178.789062 295.46875 137.566406 C 295.46875 77.765625 246.9375 29.566406 187.449219 29.566406 "/>
</g>
</g>
</svg>
